^C:\USERS\PAUL\DOCUMENTS\VISUAL STUDIO 2013\PROJECTS\8PUZZLE\8PUZZLE\GAME.CPP
/c /I"C:\Users\Paul\Documents\Visual Studio 2013\Projects\8Puzzle\packages\sfml-graphics.2.3.2.0\build\native\../..//build/native/include/" /I"C:\Users\Paul\Documents\Visual Studio 2013\Projects\8Puzzle\packages\sfml-window.2.3.2.0\build\native\../..//build/native/include/" /I"C:\Users\Paul\Documents\Visual Studio 2013\Projects\8Puzzle\packages\sfml-system.2.3.2.0\build\native\../..//build/native/include/" /I"C:\Program Files (x86)\Visual Leak Detector\include" /ZI /nologo /W3 /WX- /sdl /Od /Oy- /D HAS_SFML /D HAS_SFML /D HAS_SFML /D WIN32 /D _DEBUG /D _CONSOLE /D _LIB /D _UNICODE /D UNICODE /Gm /EHsc /RTC1 /MDd /GS /fp:precise /Zc:wchar_t /Zc:forScope /Fo"DEBUG\\" /Fd"DEBUG\VC120.PDB" /Gd /TP /analyze- C:\USERS\PAUL\DOCUMENTS\VISUAL STUDIO 2013\PROJECTS\8PUZZLE\8PUZZLE\GAME.CPP
^C:\USERS\PAUL\DOCUMENTS\VISUAL STUDIO 2013\PROJECTS\8PUZZLE\8PUZZLE\MAIN.CPP
/c /I"C:\Users\Paul\Documents\Visual Studio 2013\Projects\8Puzzle\packages\sfml-graphics.2.3.2.0\build\native\../..//build/native/include/" /I"C:\Users\Paul\Documents\Visual Studio 2013\Projects\8Puzzle\packages\sfml-window.2.3.2.0\build\native\../..//build/native/include/" /I"C:\Users\Paul\Documents\Visual Studio 2013\Projects\8Puzzle\packages\sfml-system.2.3.2.0\build\native\../..//build/native/include/" /I"C:\Program Files (x86)\Visual Leak Detector\include" /ZI /nologo /W3 /WX- /sdl /Od /Oy- /D HAS_SFML /D HAS_SFML /D HAS_SFML /D WIN32 /D _DEBUG /D _CONSOLE /D _LIB /D _UNICODE /D UNICODE /Gm /EHsc /RTC1 /MDd /GS /fp:precise /Zc:wchar_t /Zc:forScope /Fo"DEBUG\\" /Fd"DEBUG\VC120.PDB" /Gd /TP /analyze- C:\USERS\PAUL\DOCUMENTS\VISUAL STUDIO 2013\PROJECTS\8PUZZLE\8PUZZLE\MAIN.CPP
^C:\USERS\PAUL\DOCUMENTS\VISUAL STUDIO 2013\PROJECTS\8PUZZLE\8PUZZLE\PUZZLE.CPP
/c /I"C:\Users\Paul\Documents\Visual Studio 2013\Projects\8Puzzle\packages\sfml-graphics.2.3.2.0\build\native\../..//build/native/include/" /I"C:\Users\Paul\Documents\Visual Studio 2013\Projects\8Puzzle\packages\sfml-window.2.3.2.0\build\native\../..//build/native/include/" /I"C:\Users\Paul\Documents\Visual Studio 2013\Projects\8Puzzle\packages\sfml-system.2.3.2.0\build\native\../..//build/native/include/" /I"C:\Program Files (x86)\Visual Leak Detector\include" /ZI /nologo /W3 /WX- /sdl /Od /Oy- /D HAS_SFML /D HAS_SFML /D HAS_SFML /D WIN32 /D _DEBUG /D _CONSOLE /D _LIB /D _UNICODE /D UNICODE /Gm /EHsc /RTC1 /MDd /GS /fp:precise /Zc:wchar_t /Zc:forScope /Fo"DEBUG\\" /Fd"DEBUG\VC120.PDB" /Gd /TP /analyze- C:\USERS\PAUL\DOCUMENTS\VISUAL STUDIO 2013\PROJECTS\8PUZZLE\8PUZZLE\PUZZLE.CPP
^C:\USERS\PAUL\DOCUMENTS\VISUAL STUDIO 2013\PROJECTS\8PUZZLE\8PUZZLE\STATE.CPP
/c /I"C:\Users\Paul\Documents\Visual Studio 2013\Projects\8Puzzle\packages\sfml-graphics.2.3.2.0\build\native\../..//build/native/include/" /I"C:\Users\Paul\Documents\Visual Studio 2013\Projects\8Puzzle\packages\sfml-window.2.3.2.0\build\native\../..//build/native/include/" /I"C:\Users\Paul\Documents\Visual Studio 2013\Projects\8Puzzle\packages\sfml-system.2.3.2.0\build\native\../..//build/native/include/" /I"C:\Program Files (x86)\Visual Leak Detector\include" /ZI /nologo /W3 /WX- /sdl /Od /Oy- /D HAS_SFML /D HAS_SFML /D HAS_SFML /D WIN32 /D _DEBUG /D _CONSOLE /D _LIB /D _UNICODE /D UNICODE /Gm /EHsc /RTC1 /MDd /GS /fp:precise /Zc:wchar_t /Zc:forScope /Fo"DEBUG\\" /Fd"DEBUG\VC120.PDB" /Gd /TP /analyze- C:\USERS\PAUL\DOCUMENTS\VISUAL STUDIO 2013\PROJECTS\8PUZZLE\8PUZZLE\STATE.CPP
^C:\USERS\PAUL\DOCUMENTS\VISUAL STUDIO 2013\PROJECTS\8PUZZLE\8PUZZLE\TILE.CPP
/c /I"C:\Users\Paul\Documents\Visual Studio 2013\Projects\8Puzzle\packages\sfml-graphics.2.3.2.0\build\native\../..//build/native/include/" /I"C:\Users\Paul\Documents\Visual Studio 2013\Projects\8Puzzle\packages\sfml-window.2.3.2.0\build\native\../..//build/native/include/" /I"C:\Users\Paul\Documents\Visual Studio 2013\Projects\8Puzzle\packages\sfml-system.2.3.2.0\build\native\../..//build/native/include/" /I"C:\Program Files (x86)\Visual Leak Detector\include" /ZI /nologo /W3 /WX- /sdl /Od /Oy- /D HAS_SFML /D HAS_SFML /D HAS_SFML /D WIN32 /D _DEBUG /D _CONSOLE /D _LIB /D _UNICODE /D UNICODE /Gm /EHsc /RTC1 /MDd /GS /fp:precise /Zc:wchar_t /Zc:forScope /Fo"DEBUG\\" /Fd"DEBUG\VC120.PDB" /Gd /TP /analyze- C:\USERS\PAUL\DOCUMENTS\VISUAL STUDIO 2013\PROJECTS\8PUZZLE\8PUZZLE\TILE.CPP
^C:\USERS\PAUL\DOCUMENTS\VISUAL STUDIO 2013\PROJECTS\8PUZZLE\8PUZZLE\UTILITY.CPP
/c /I"C:\Users\Paul\Documents\Visual Studio 2013\Projects\8Puzzle\packages\sfml-graphics.2.3.2.0\build\native\../..//build/native/include/" /I"C:\Users\Paul\Documents\Visual Studio 2013\Projects\8Puzzle\packages\sfml-window.2.3.2.0\build\native\../..//build/native/include/" /I"C:\Users\Paul\Documents\Visual Studio 2013\Projects\8Puzzle\packages\sfml-system.2.3.2.0\build\native\../..//build/native/include/" /I"C:\Program Files (x86)\Visual Leak Detector\include" /ZI /nologo /W3 /WX- /sdl /Od /Oy- /D HAS_SFML /D HAS_SFML /D HAS_SFML /D WIN32 /D _DEBUG /D _CONSOLE /D _LIB /D _UNICODE /D UNICODE /Gm /EHsc /RTC1 /MDd /GS /fp:precise /Zc:wchar_t /Zc:forScope /Fo"DEBUG\\" /Fd"DEBUG\VC120.PDB" /Gd /TP /analyze- C:\USERS\PAUL\DOCUMENTS\VISUAL STUDIO 2013\PROJECTS\8PUZZLE\8PUZZLE\UTILITY.CPP
^C:\USERS\PAUL\DOCUMENTS\VISUAL STUDIO 2013\PROJECTS\8PUZZLE\8PUZZLE\WORLD.CPP
/c /I"C:\Users\Paul\Documents\Visual Studio 2013\Projects\8Puzzle\packages\sfml-graphics.2.3.2.0\build\native\../..//build/native/include/" /I"C:\Users\Paul\Documents\Visual Studio 2013\Projects\8Puzzle\packages\sfml-window.2.3.2.0\build\native\../..//build/native/include/" /I"C:\Users\Paul\Documents\Visual Studio 2013\Projects\8Puzzle\packages\sfml-system.2.3.2.0\build\native\../..//build/native/include/" /I"C:\Program Files (x86)\Visual Leak Detector\include" /ZI /nologo /W3 /WX- /sdl /Od /Oy- /D HAS_SFML /D HAS_SFML /D HAS_SFML /D WIN32 /D _DEBUG /D _CONSOLE /D _LIB /D _UNICODE /D UNICODE /Gm /EHsc /RTC1 /MDd /GS /fp:precise /Zc:wchar_t /Zc:forScope /Fo"DEBUG\\" /Fd"DEBUG\VC120.PDB" /Gd /TP /analyze- C:\USERS\PAUL\DOCUMENTS\VISUAL STUDIO 2013\PROJECTS\8PUZZLE\8PUZZLE\WORLD.CPP
