^C:\USERS\PAUL\DOCUMENTS\VISUAL STUDIO 2013\PROJECTS\8PUZZLE\8PUZZLE\DEBUG\GAME.OBJ|C:\USERS\PAUL\DOCUMENTS\VISUAL STUDIO 2013\PROJECTS\8PUZZLE\8PUZZLE\DEBUG\MAIN.OBJ|C:\USERS\PAUL\DOCUMENTS\VISUAL STUDIO 2013\PROJECTS\8PUZZLE\8PUZZLE\DEBUG\PUZZLE.OBJ|C:\USERS\PAUL\DOCUMENTS\VISUAL STUDIO 2013\PROJECTS\8PUZZLE\8PUZZLE\DEBUG\STATE.OBJ|C:\USERS\PAUL\DOCUMENTS\VISUAL STUDIO 2013\PROJECTS\8PUZZLE\8PUZZLE\DEBUG\TILE.OBJ|C:\USERS\PAUL\DOCUMENTS\VISUAL STUDIO 2013\PROJECTS\8PUZZLE\8PUZZLE\DEBUG\UTILITY.OBJ|C:\USERS\PAUL\DOCUMENTS\VISUAL STUDIO 2013\PROJECTS\8PUZZLE\8PUZZLE\DEBUG\WORLD.OBJ
C:\USERS\PAUL\DOCUMENTS\VISUAL STUDIO 2013\PROJECTS\8PUZZLE\DEBUG\8PUZZLE.ILK
C:\USERS\PAUL\DOCUMENTS\VISUAL STUDIO 2013\PROJECTS\8PUZZLE\DEBUG\8PUZZLE.EXE
C:\USERS\PAUL\DOCUMENTS\VISUAL STUDIO 2013\PROJECTS\8PUZZLE\DEBUG\8PUZZLE.PDB
